Example Scenario 1
…
Example Scenario 1

Lukas Huber

Run make.R to generate the output report.html and its dependencies.

Because of the use of loadd() and readd() below, drake knows report.report depends on targets sc1_interim_data.

library(drake)
loadd(sc1_interim_data)
print(sc1_interim_data)
#> # A tibble: 153 x 6
#>     gupi timestamp              ICP PbtO2   MAP   cpp
#>    <dbl> <dttm>               <dbl> <dbl> <dbl> <dbl>
#>  1     1 2021-01-01 10:00:00  3.80  18.8  109.  105. 
#>  2     1 2021-01-01 10:05:00  9.15  32.0  105.   95.8
#>  3     1 2021-01-01 10:10:00  5.80  14.8   88.5  82.7
#>  4     1 2021-01-01 10:15:00 15.4    2.72  94.3  78.9
#>  5     1 2021-01-01 10:20:00 14.1   21.3  105.   90.4
#>  6     1 2021-01-01 10:25:00 13.7   29.9  116.  102. 
#>  7     1 2021-01-01 10:30:00  8.81  35.0  118.  110. 
#>  8     1 2021-01-01 10:35:00  0.551 25.1  106.  105. 
#>  9     1 2021-01-01 10:40:00  8.31  28.8   93.7  85.4
#> 10     1 2021-01-01 10:45:00 18.3   38.2   97.6  79.3
#> #  with 143 more rows
…
