Scenario 1 • reproducibleFairTemplate
…
## ▶ target sc1_question

## ▶ target sc1_data

## ▶ target sc1_interim_data

## ▶ target sc1_analysis

## ▶ target sc1_evaluation_process

## ▶ target sc1_result

drake_history()

## # A tibble: 28 x 10
##    target  current built exists hash  command     seed runtime quiet output_file
##    <chr>   <lgl>   <chr> <lgl>  <chr> <chr>      <int>   <dbl> <lgl> <chr>      
##  1 data    FALSE   2021… NA     <NA>   <NA>    NA      NA      NA    <NA>       
##  2 data    FALSE   2021… NA     <NA>   <NA>    NA      NA      NA    <NA>       
##  3 data    FALSE   2021… TRUE   aed3… "raw_da…  1.29e9  0.012  NA    <NA>       
##  4 raw_da… FALSE   2021… NA     <NA>   <NA>    NA      NA      NA    <NA>       
##  5 raw_da… FALSE   2021… NA     <NA>   <NA>    NA      NA      NA    <NA>       
##  6 raw_da… FALSE   2021… TRUE   53c9… "readxl…  1.20e9  0.0130 NA    <NA>       
##  7 sc1_an… FALSE   2021… NA     <NA>   <NA>    NA      NA      NA    <NA>       
##  8 sc1_an… FALSE   2021… NA     <NA>   <NA>    NA      NA      NA    <NA>       
##  9 sc1_an… TRUE    2021… TRUE   7855… "{\n   …  2.72e7  1.13   TRUE  report.html
## 10 sc1_da… FALSE   2021… NA     <NA>   <NA>    NA      NA      NA    <NA>       
## # … with 18 more rows
…
